<?xml version="1.0" encoding="utf-8"?>
<!-- Generator: Adobe Illustrator 19.0.0, SVG Export Plug-In . SVG Version: 6.00 Build 0)  -->
<svg version="1.1" id="Layer_1" xmlns="http://www.w3.org/2000/svg" xmlns:xlink="http://www.w3.org/1999/xlink" x="0px" y="0px"
	 viewBox="-359 361 80 80" style="enable-background:new -359 361 80 80;" xml:space="preserve">
<style type="text/css">
	.st0{fill:#E42112;}
</style>
<path class="st0" d="M-285.2,366.9h-67.5c-3.4,0-6.3,2.8-6.3,6.3v40c0,3.4,2.8,6.3,6.3,6.3h31.7v-2.5h-31.7c-2.1,0-3.8-1.7-3.8-3.8
	v-40c0-2.1,1.7-3.8,3.8-3.8h67.5c2.1,0,3.8,1.7,3.8,3.8v25.4c0.4,0,2.1-0.1,2.5,0v-25.4C-279,369.7-281.8,366.9-285.2,366.9z"/>
<g>
	<rect x="-350.3" y="381" class="st0" width="6.3" height="3.4"/>
	<path class="st0" d="M-350.3,386.6v1.1c0,1.4,1.1,2.5,2.5,2.5h6v-3.6H-350.3z"/>
	<path class="st0" d="M-330.2,378.8v-1.1c0-1.4-1.1-2.5-2.5-2.5h-6v3.6C-338.7,378.8-330.2,378.8-330.2,378.8z"/>
	<path class="st0" d="M-341.8,375.2h-6c-1.4,0-2.5,1.1-2.5,2.5v1.1h8.5L-341.8,375.2C-341.8,375.2-341.8,375.2-341.8,375.2z"/>
	<rect x="-336.5" y="381" class="st0" width="6.3" height="3.4"/>
	<path class="st0" d="M-338.7,390.2h6c1.4,0,2.5-1.1,2.5-2.5v-1.1h-8.5V390.2L-338.7,390.2z"/>
</g>
<path class="st0" d="M-322.7,409.4h-26.1c-0.7,0-1.3-0.6-1.3-1.3c0-0.7,0.6-1.2,1.3-1.2h26.1c0.7,0,1.2,0.6,1.2,1.2
	C-321.5,408.9-322.1,409.4-322.7,409.4z"/>
<g>
	<path class="st0" d="M-316.5,397.3H-329c-0.7,0-1.3,0.6-1.3,1.3c0,0.7,0.6,1.2,1.3,1.2h12.5c0.7,0,1.3-0.6,1.3-1.2
		C-315.2,397.9-315.8,397.3-316.5,397.3z"/>
	<path class="st0" d="M-336,397.3h-12.7c-0.7,0-1.3,0.6-1.3,1.3c0,0.7,0.6,1.2,1.3,1.2h12.7c0.7,0,1.3-0.6,1.3-1.2
		C-334.8,397.9-335.3,397.3-336,397.3z"/>
</g>
<path class="st0" d="M-280.2,402.7h-4.5v-7.1c0-7.4-6-13.4-13.4-13.4c-7.4,0-13.4,6-13.4,13.4v7.1h-4.5c-0.7,0-1.2,0.5-1.2,1.2v30.7
	c0,3.5,2.8,6.4,6.4,6.4h25.6c3.5,0,6.4-2.9,6.4-6.4v-30.7C-279,403.3-279.6,402.7-280.2,402.7z M-309,395.6c0-6,4.9-10.9,10.9-10.9
	c6,0,10.9,4.9,10.9,10.9v7.1H-309V395.6z M-281.5,434.6c0,2.1-1.7,3.9-3.9,3.9h-25.6c-2.1,0-3.9-1.7-3.9-3.9v-29.4h33.3V434.6z"/>
<path class="st0" d="M-298.1,412.1c-3.5,0-6.4,2.9-6.4,6.4c0,1.8,0.8,3.5,2.1,4.7v4.2c0,2.3,1.9,4.2,4.2,4.2c2.3,0,4.2-1.9,4.2-4.2
	v-4.2c1.3-1.2,2.1-2.9,2.1-4.7C-291.8,414.9-294.6,412.1-298.1,412.1z M-295.9,421.6l-0.5,0.4v5.5c0,0.9-0.8,1.7-1.7,1.7
	c-1,0-1.7-0.8-1.7-1.7v-5.5l-0.5-0.4c-1-0.7-1.6-1.9-1.6-3.1c0-2.1,1.7-3.9,3.9-3.9c2.1,0,3.9,1.7,3.9,3.9
	C-294.3,419.7-294.9,420.8-295.9,421.6z"/>
</svg>
